List 0
List 1
List 2
List 3
List 4
List 5
List 6
List 7
List 8
List 9
List 10
List 11
List 12
List 13
List 14
List 15
List 16
List 17
List 18
List 19
List 20
List 21
List 22
List 23
List 24
List 25
List 26
List 27
List 28
List 29
List 30
List 31
List 32
List 33
List 34
List 35
List 36
List 37
List 38
List 39
List 40
List 41
List 42
List 43
List 44
List 45
List 46
List 47
List 48
List 49
List 50
List 51
List 52
List 53
List 54
List 55
List 56
List 57
List 58
List 59
List 60
List 61
List 62
eSignalRTData
